<svg xmlns="http://www.w3.org/2000/svg" width="19.188" height="16" viewBox="0 0 19.188 16">
  <metadata><?xpacket begin="﻿" id="W5M0MpCehiHzreSzNTczkc9d"?>
<x:xmpmeta xmlns:x="adobe:ns:meta/" x:xmptk="Adobe XMP Core 5.6-c138 79.159824, 2016/09/14-01:09:01        ">
   <rdf:RDF xmlns:rdf="http://www.w3.org/1999/02/22-rdf-syntax-ns#">
      <rdf:Description rdf:about=""/>
   </rdf:RDF>
</x:xmpmeta>
                                                                                                    
                                                                                                    
                                                                                                    
                                                                                                    
                                                                                                    
                                                                                                    
                                                                                                    
                                                                                                    
                                                                                                    
                                                                                                    
                                                                                                    
                                                                                                    
                                                                                                    
                                                                                                    
                                                                                                    
                                                                                                    
                                                                                                    
                                                                                                    
                                                                                                    
                                                                                                    
                           
<?xpacket end="w"?></metadata>
<defs>
    <style>
      .cls-1 {
        fill: #fab432;
        fill-rule: evenodd;
      }
    </style>
  </defs>
  <path id="Bock" class="cls-1" d="M903.242,1583.05a1.386,1.386,0,0,1,0,1.83l-8.954,9.76-1.682,1.83a1.118,1.118,0,0,1-1.68,0l-1.682-1.83-4.478-4.88a1.311,1.311,0,0,1-.346-0.92,1.286,1.286,0,0,1,.346-0.91l1.682-1.84a1.141,1.141,0,0,1,1.682,0l3.637,3.98,8.11-8.86a1.142,1.142,0,0,1,1.683,0l1.682,1.84h0Z" transform="translate(-884.406 -1580.84)"/>
</svg>
